<?xml version="1.0" encoding="UTF-8"?>
<svg width="36px" height="36px" viewBox="0 0 36 36" xmlns="http://www.w3.org/2000/svg" xmlns:xlink="http://www.w3.org/1999/xlink" version="1.1">
<defs>
  <filter id="shadow" filterUnits="userSpaceOnUse" height="50" width="50">
    <feDropShadow dx="2" dy="2" stdDeviation="2" flood-color="rgb(0, 0, 0, 0.6)"/>
  </filter>
</defs>
 <!-- Generated by Pixelmator Pro 1.7.1 -->
 <path id="Rounded-Rectangle" d="M8 2 C4.686 2 2 4.686 2 8 L2 22 C2 25.314 4.686 28 8 28 L22 28 C25.314 28 28 25.314 28 22 L28 8 C28 4.686 25.314 2 22 2 Z" fill="#167aad" fill-opacity="1" stroke="#050505" stroke-width="3" stroke-opacity="1" stroke-linejoin="round" style="filter:url(#shadow);"/>
 <g id="git-commit-fill">
  <path id="Path" d="M3 3 L27 3 27 27 3 27 Z" fill="none" stroke="none"/>
  <path id="Path-1" d="M18.874 16 C18.416 17.765 16.824 18.998 15 18.998 13.176 18.998 11.584 17.765 11.126 16 L6 16 6 14 11.126 14 C11.584 12.235 13.176 11.002 15 11.002 16.824 11.002 18.416 12.235 18.874 14 L24 14 24 16 Z" fill="#050505" fill-opacity="1" stroke="none"/>
 </g>
</svg>
