<?xml version="1.0" encoding="UTF-8"?>
<svg width="496px" height="440px" viewBox="0 0 496 440" xmlns="http://www.w3.org/2000/svg" xmlns:xlink="http://www.w3.org/1999/xlink" version="1.1">
 <!-- Generated by Pixelmator Pro 1.7.1 -->
 <path id="Ellipse" d="M413 220 C413 128.873 339.127 55 248 55 156.873 55 83 128.873 83 220 83 311.127 156.873 385 248 385 339.127 385 413 311.127 413 220 Z" fill="#ffffff" fill-opacity="1" stroke="#ffffff" stroke-width="10" stroke-opacity="1" stroke-linejoin="round"/>
 <path id="Path" d="M435 220 C435 116.723 351.277 33 248 33 144.723 33 61 116.723 61 220 61 323.277 144.723 407 248 407 351.277 407 435 323.277 435 220 Z" fill="none" stroke="#ce161e" stroke-width="55" stroke-opacity="1" stroke-linejoin="round"/>
</svg>
